ggplot2_chapter2
…
mpg_km <- mpg %>%
  mutate(cty_l100km = cty * 235.215,
         hwy_l100lm = hwy * 235.215)
mpg_km %>% select(cty:hwy_l100lm)

## # A tibble: 234 x 6
##      cty   hwy fl    class   cty_l100km hwy_l100lm
##    <int> <int> <chr> <chr>        <dbl>      <dbl>
##  1    18    29 p     compact      4234.      6821.
##  2    21    29 p     compact      4940.      6821.
##  3    20    31 p     compact      4704.      7292.
##  4    21    30 p     compact      4940.      7056.
##  5    16    26 p     compact      3763.      6116.
##  6    18    26 p     compact      4234.      6116.
##  7    18    27 p     compact      4234.      6351.
##  8    18    26 p     compact      4234.      6116.
##  9    16    25 p     compact      3763.      5880.
## 10    20    28 p     compact      4704.      6586.
## # ... with 224 more rows
…
A better approach is to check a manufacturer+model combination count

df <- mpg %>%
  mutate(manuModel = paste(manufacturer, model, sep = " "))

df  %>%
  select(manufacturer, model, manuModel)

## # A tibble: 234 x 3
##    manufacturer model      manuModel      
##    <chr>        <chr>      <chr>          
##  1 audi         a4         audi a4        
##  2 audi         a4         audi a4        
##  3 audi         a4         audi a4        
##  4 audi         a4         audi a4        
##  5 audi         a4         audi a4        
##  6 audi         a4         audi a4        
##  7 audi         a4         audi a4        
##  8 audi         a4 quattro audi a4 quattro
##  9 audi         a4 quattro audi a4 quattro
## 10 audi         a4 quattro audi a4 quattro
## # ... with 224 more rows
…
