ggplot2_solutions_chapter10
…
Question 4 Install the ggplot2movies package and look at the movies that have a missing budget. How are they different from the movies with a budget? (Hint: try a frequency polygon plus colour = is.na(budget).)

library(ggplot2movies)
movies <- ggplot2movies::movies
movies

## # A tibble: 58,788 x 24
##    title     year length budget rating votes    r1    r2    r3    r4    r5
##    <chr>    <int>  <int>  <int>  <dbl> <int> <dbl> <dbl> <dbl> <dbl> <dbl>
##  1 $         1971    121     NA    6.4   348   4.5   4.5   4.5   4.5  14.5
##  2 $1000 a~  1939     71     NA    6      20   0    14.5   4.5  24.5  14.5
##  3 $21 a D~  1941      7     NA    8.2     5   0     0     0     0     0  
##  4 $40,000   1996     70     NA    8.2     6  14.5   0     0     0     0  
##  5 $50,000~  1975     71     NA    3.4    17  24.5   4.5   0    14.5  14.5
##  6 $pent     2000     91     NA    4.3    45   4.5   4.5   4.5  14.5  14.5
##  7 $windle   2002     93     NA    5.3   200   4.5   0     4.5   4.5  24.5
##  8 '15'      2002     25     NA    6.7    24   4.5   4.5   4.5   4.5   4.5
##  9 '38       1987     97     NA    6.6    18   4.5   4.5   4.5   0     0  
## 10 '49-'17   1917     61     NA    6      51   4.5   0     4.5   4.5   4.5
## # ... with 58,778 more rows, and 13 more variables: r6 <dbl>, r7 <dbl>,
## #   r8 <dbl>, r9 <dbl>, r10 <dbl>, mpaa <chr>, Action <int>,
## #   Animation <int>, Comedy <int>, Drama <int>, Documentary <int>,
## #   Romance <int>, Short <int>

movies2 <- movies %>% 
  mutate(hasbudget = ifelse(budget == 0, "Missing Budget", "Has Budget"))
movies2

## # A tibble: 58,788 x 25
##    title     year length budget rating votes    r1    r2    r3    r4    r5
##    <chr>    <int>  <int>  <int>  <dbl> <int> <dbl> <dbl> <dbl> <dbl> <dbl>
##  1 $         1971    121     NA    6.4   348   4.5   4.5   4.5   4.5  14.5
##  2 $1000 a~  1939     71     NA    6      20   0    14.5   4.5  24.5  14.5
##  3 $21 a D~  1941      7     NA    8.2     5   0     0     0     0     0  
##  4 $40,000   1996     70     NA    8.2     6  14.5   0     0     0     0  
##  5 $50,000~  1975     71     NA    3.4    17  24.5   4.5   0    14.5  14.5
##  6 $pent     2000     91     NA    4.3    45   4.5   4.5   4.5  14.5  14.5
##  7 $windle   2002     93     NA    5.3   200   4.5   0     4.5   4.5  24.5
##  8 '15'      2002     25     NA    6.7    24   4.5   4.5   4.5   4.5   4.5
##  9 '38       1987     97     NA    6.6    18   4.5   4.5   4.5   0     0  
## 10 '49-'17   1917     61     NA    6      51   4.5   0     4.5   4.5   4.5
## # ... with 58,778 more rows, and 14 more variables: r6 <dbl>, r7 <dbl>,
## #   r8 <dbl>, r9 <dbl>, r10 <dbl>, mpaa <chr>, Action <int>,
## #   Animation <int>, Comedy <int>, Drama <int>, Documentary <int>,
## #   Romance <int>, Short <int>, hasbudget <chr>
…
Make a plot: We calculate the difference between the given depth and our calculated depth_cal, then we make a plot, if the plots shows more positive values, then it means our calculation is below the original, otherwise, above.

diamonds_q1 <- diamonds_q1 %>% 
  mutate(diff = depth - depth_cal,
         seq = seq_along(carat))
diamonds_q1

## # A tibble: 53,940 x 18
##    carat cut       color clarity depth table price     x     y     z   vol
##    <dbl> <ord>     <ord> <ord>   <dbl> <dbl> <int> <dbl> <dbl> <dbl> <dbl>
##  1 0.23  Ideal     E     SI2      61.5    55   326  3.95  3.98  2.43  25.5
##  2 0.21  Premium   E     SI1      59.8    61   326  3.89  3.84  2.31  23.0
##  3 0.23  Good      E     VS1      56.9    65   327  4.05  4.07  2.31  25.4
##  4 0.290 Premium   I     VS2      62.4    58   334  4.2   4.23  2.63  31.1
##  5 0.31  Good      J     SI2      63.3    58   335  4.34  4.35  2.75  34.6
##  6 0.24  Very Good J     VVS2     62.8    57   336  3.94  3.96  2.48  25.8
##  7 0.24  Very Good I     VVS1     62.3    57   336  3.95  3.98  2.47  25.9
##  8 0.26  Very Good H     SI1      61.9    55   337  4.07  4.11  2.53  28.2
##  9 0.22  Fair      E     VS2      65.1    61   337  3.87  3.78  2.49  24.3
## 10 0.23  Very Good H     VS1      59.4    61   338  4     4.05  2.39  25.8
## # ... with 53,930 more rows, and 7 more variables: density <dbl>,
## #   pricepc <dbl>, caratl <dbl>, pricel <dbl>, depth_cal <dbl>,
## #   diff <dbl>, seq <int>
…
movies1

## # A tibble: 113 x 4
##     year hasBudget total propNoBudget
##    <int>     <int> <int>        <dbl>
##  1  1893         0     1            1
##  2  1894         0     9            1
##  3  1895         0     3            1
##  4  1896         0    13            1
##  5  1897         0     9            1
##  6  1898         0     5            1
##  7  1899         0     9            1
##  8  1900         0    16            1
##  9  1901         0    28            1
## 10  1902         0     9            1
## # ... with 103 more rows

As you can see from the plot, the percentage of movies with missing budget decreased with the progression of time.

Question 2 How does the average length of a movie change over time? Display your answer with a plot, including some display of uncertainty.

We only need to group the data by year, and then calculate the mean of length, then use a line plot (since we have time and a continuous variable).

q2 <- movies %>% 
  group_by(year) %>% 
  summarise(mean = mean(length))
q2

## # A tibble: 113 x 2
##     year  mean
##    <int> <dbl>
##  1  1893  1   
##  2  1894  1   
##  3  1895  1   
##  4  1896  1.31
##  5  1897  1   
##  6  1898  1   
##  7  1899  2.44
##  8  1900  1.44
##  9  1901  2   
## 10  1902  3.56
## # ... with 103 more rows
…
